DRUGID,NAME,TRUE_LABELS,PREDICTED_LABELS,SMILES
376,Balofloxacin,Anti-Infec,Anti-Neo,CNC1CCCN(c2c(F)cc3c(=O)c(C(=O)O)cn(C4CC4)c3c2OC)C1
376,Balofloxacin,Anti-Neo,Urol,CNC1CCCN(c2c(F)cc3c(=O)c(C(=O)O)cn(C4CC4)c3c2OC)C1
1109,Butylphthalide,CNS,Anti-Infec,CCCCC1OC(=O)c2ccccc21
1109,Butylphthalide,Hema,Urol,CCCCC1OC(=O)c2ccccc21
1362,DAMGO,Cardio,CNS,C[C@@H](NC(=O)[C@@H](N)Cc1ccc(O)cc1)C(=O)NCC(=O)N(C)[C@@H](Cc1ccccc1)C(=O)NCCO
1362,DAMGO,CNS,Urol,C[C@@H](NC(=O)[C@@H](N)Cc1ccc(O)cc1)C(=O)NCC(=O)N(C)[C@@H](Cc1ccccc1)C(=O)NCCO
1558,dipyridamole,Cardio,Anti-Neo,OCCN(CCO)c1nc(N2CCCCC2)c2nc(N(CCO)CCO)nc(N3CCCCC3)c2n1
1558,dipyridamole,Hema,LipReg,OCCN(CCO)c1nc(N2CCCCC2)c2nc(N(CCO)CCO)nc(N3CCCCC3)c2n1
1285,ebselen,Anti-Infla,Anti-Infec,O=c1c2ccccc2[se]n1-c1ccccc1
1285,ebselen,CNS,Anti-Neo,O=c1c2ccccc2[se]n1-c1ccccc1
1285,ebselen,Gastro,Urol,O=c1c2ccccc2[se]n1-c1ccccc1
2097,Eplivanserin,Cardio,CNS,CN(C)CCON=C(C=Cc1ccc(O)cc1)c1ccccc1F
2097,Eplivanserin,Hema,Hema,CN(C)CCON=C(C=Cc1ccc(O)cc1)c1ccccc1F
460,Ginsenoside C,Anti-Neo,Anti-Infec,CC(C)=CCC[C@](C)(OC1OC(COC2OCC(O)C(O)C2O)C(O)C(O)C1O)C1CC[C@]2(C)C1C(O)CC1[C@@]3(C)CCC(OC4OC(CO)C(O)C(O)C4OC4OC(CO)C(O)C(O)C4O)C(C)(C)C3CC[C@]12C
460,Ginsenoside C,LipReg,CNS,CC(C)=CCC[C@](C)(OC1OC(COC2OCC(O)C(O)C2O)C(O)C(O)C1O)C1CC[C@]2(C)C1C(O)CC1[C@@]3(C)CCC(OC4OC(CO)C(O)C(O)C4OC4OC(CO)C(O)C(O)C4O)C(C)(C)C3CC[C@]12C
2428,hypericin,Anti-Infec,Anti-Infec,Cc1cc(=O)c2c(O)c3c(O)cc(O)c4c5c(O)cc(O)c6c(O)c7c(=O)cc(C)c8c1c2c(c34)c(c65)c78
2428,hypericin,Anti-Neo,Anti-Neo,Cc1cc(=O)c2c(O)c3c(O)cc(O)c4c5c(O)cc(O)c6c(O)c7c(=O)cc(C)c8c1c2c(c34)c(c65)c78
2428,hypericin,CNS,Urol,Cc1cc(=O)c2c(O)c3c(O)cc(O)c4c5c(O)cc(O)c6c(O)c7c(=O)cc(C)c8c1c2c(c34)c(c65)c78
1352,Lacosamide,Cardio,Anti-Neo,COC[C@@H](NC(C)=O)C(=O)NCc1ccccc1
1352,Lacosamide,CNS,CNS,COC[C@@H](NC(C)=O)C(=O)NCc1ccccc1
1355,OTILONIUM,Cardio,Anti-Infec,CCCCCCCCOc1ccccc1C(=O)Nc1ccc(C(=O)OCC[N+](C)(CC)CC)cc1
1355,OTILONIUM,Gastro,Urol,CCCCCCCCOc1ccccc1C(=O)Nc1ccc(C(=O)OCC[N+](C)(CC)CC)cc1
1612,Palmitoylethanolamide,Anti-Infec,Anti-Infec,CCCCCCCCCCCCCCCC(=O)NCCO
1612,Palmitoylethanolamide,Anti-Infla,Cardio,CCCCCCCCCCCCCCCC(=O)NCCO
1612,Palmitoylethanolamide,CNS,Urol,CCCCCCCCCCCCCCCC(=O)NCCO
2955,PDMP,Anti-Infec,Anti-Infec,CCCCCCCCCC(=O)NC(CN1CCOCC1)C(O)c1ccccc1
2955,PDMP,Anti-Neo,Cardio,CCCCCCCCCC(=O)NC(CN1CCOCC1)C(O)c1ccccc1
2312,PEPPERMINT OIL,CNS,Anti-Infec,CC(=O)OC1CC(C)CCC1C(C)C.CC(C)=C1CCC(C)CC1=O.CC1CCC(C(C)C)C(=O)C1.CC1CCC(C(C)C)C(O)C1.CC1CCC2(CC1)OCC2C.Cc1coc2c1CCC(C)C2
2312,PEPPERMINT OIL,Gastro,Cardio,CC(=O)OC1CC(C)CCC1C(C)C.CC(C)=C1CCC(C)CC1=O.CC1CCC(C(C)C)C(=O)C1.CC1CCC(C(C)C)C(O)C1.CC1CCC2(CC1)OCC2C.Cc1coc2c1CCC(C)C2
1027,tirofiban,Cardio,Anti-Neo,CCCCS(=O)(=O)N[C@@H](Cc1ccc(OCCCCC2CCNCC2)cc1)C(=O)O
1027,tirofiban,Hema,CNS,CCCCS(=O)(=O)N[C@@H](Cc1ccc(OCCCCC2CCNCC2)cc1)C(=O)O
1509,azelaic acid,Anti-Neo,Gastro,O=C(O)CCCCCCCC(=O)O
1509,azelaic acid,Derm,Hema,O=C(O)CCCCCCCC(=O)O
3016,quinine-sulphate,Anti-Infec,Anti-Infec,C=C[C@@H]1CN2CC[C@@H]1C[C@@H]2[C@@H](O)c1ccnc2ccc(OC)cc12
3016,quinine-sulphate,CNS,Cardio,C=C[C@@H]1CN2CC[C@@H]1C[C@@H]2[C@@H](O)c1ccnc2ccc(OC)cc12
